﻿# Anbennar: commented vanilla stuff

namespace = wanderer_lifestyle_events

wanderer_lifestyle_events.10 = { # Restlessness
	type = character_event
	content_source = dlc_015
	title = wanderer_lifestyle_events.10.t
	desc = wanderer_lifestyle_events.10.desc
	theme = wanderer_journey_focus
	override_background = { reference = corridor_day }

	cooldown = { years = 10 }

	left_portrait = {
		character = root
		animation = anger
	}
	
	trigger = {
		has_lifestyle = wanderer_lifestyle
		NOR = {
			has_trait = lazy
			has_trait = reclusive
		}
	}

	immediate = {

	}

	option = { 
		name = wanderer_lifestyle_events.10.a
		add_character_modifier = wanderer_restlessness_modifier
		custom_tooltip = wanderer_lifestyle_events.10.a.tt
	}
}

wanderer_lifestyle_events.20 = { # Reminiscing about a previous journey
	type = character_event
	content_source = dlc_015
	title = wanderer_lifestyle_events.20.t
	desc = {
		desc = wanderer_lifestyle_events.20.desc
		first_valid = {
			triggered_desc = {
				trigger = {
					scope:reminiscing_location = { has_special_building = yes }
				}
				desc = wanderer_lifestyle_events.20.desc.special_building
			}
			triggered_desc = {
				trigger = {
					scope:reminiscing_location = { is_coastal = yes }
				}
				desc = wanderer_lifestyle_events.20.desc.coastal
			}
			triggered_desc = {
				trigger = {
					scope:reminiscing_location = { is_riverside_province = yes }
				}
				desc = wanderer_lifestyle_events.20.desc.river
			}
			triggered_desc = {
				trigger = {
					scope:reminiscing_location = { has_holding_type = castle_holding }
				}
				desc = wanderer_lifestyle_events.20.desc.castle
			}
			triggered_desc = {
				trigger = {
					scope:reminiscing_location = { has_holding_type = city_holding }
				}
				desc = wanderer_lifestyle_events.20.desc.city
			}
			desc = wanderer_lifestyle_events.20.desc.people
		}
		first_valid = {
			triggered_desc = {
				trigger = {
					exists = scope:listening_child
				}
				desc = wanderer_lifestyle_events.20.desc.outro_child
			}
			desc = wanderer_lifestyle_events.20.desc.outro
		}
	}
	theme = wanderer_journey_focus
	override_background = { reference = study }

	cooldown = { years = 10 }

	left_portrait = {
		character = root
		triggered_animation = {
			trigger = {
				exists = scope:listening_child
			}
			animation = debating
		}
		animation = boredom
	}

	right_portrait = {
		character = scope:listening_child
		animation = laugh
	}
	
	trigger = {
		has_lifestyle = wanderer_lifestyle
		has_variable_list = visited_poi
		NOT = { has_variable = reminiscing_location }
		any_in_list = {
			variable = visited_poi
			NOT = { county.holder.top_liege = root.top_liege }
		}
	}

	immediate = {
		mapmaking_mythical_lie_effect = yes
		random_in_list = {
			limit = {
				NOT = { county.holder.top_liege = root.top_liege }
			}
			variable = visited_poi
			save_scope_as = reminiscing_location
		}
		random_child = {
			limit = {
				is_adult = no
				age >= 6
				OR = {
					has_trait = curious
					has_trait = pensive
					has_trait = ambitious
					has_trait = gregarious
					has_trait = brave
				}
			}
			save_scope_as = listening_child
		}
	}

	option = {
		name = wanderer_lifestyle_events.20.a
		trigger = {
			exists = scope:listening_child
		}
		duel = {
			skills = { intrigue diplomacy }
			target = scope:listening_child
			50 = {
				desc = wanderer_lifestyle_events.20.a.win
				compare_modifier = {
					 value = scope:duel_value
					 multiplier = 3.5
					 min = -49
				}
				scope:listening_child = {
					progress_towards_friend_effect = {
						REASON = friend_composer_stories
						CHARACTER = root
						OPINION = default_friend_opinion
					}
				}
			}
			50 = {
				desc = wanderer_lifestyle_events.20.a.lose
				compare_modifier = {
					 value = scope:duel_value
					 multiplier = -3.5
					 min = -49
				}
				scope:listening_child = {
					add_opinion = {
						modifier = friendliness_opinion
						target = root
						opinion = 5
					}
				}
			}
		}

		stress_impact = {
			gregarious = minor_stress_impact_loss
			deceitful = minor_stress_impact_loss
		}

		ai_chance = {
			base = 100
			modifier = {
				factor = 5
				OR = {
					has_trait = gregarious
					has_trait = deceitful
				}
			}
		}
	}

	option = { 
		name = {
			trigger = {
				exists = scope:listening_child
			}
			text = wanderer_lifestyle_events.20.b.child
		}
		name = {
			trigger = {
				NOT = { exists = scope:listening_child}
			}
			text = wanderer_lifestyle_events.20.b
		}
		custom_tooltip = wanderer_lifestyle_events.20.b.tt

		set_variable = {
			name = reminiscing_location
			value = scope:reminiscing_location
		}

		stress_impact = {
			honest = minor_stress_impact_loss
		}

		ai_chance = {
			base = 100
			modifier = {
				factor = 5
				has_trait = honest
			}
		}
	}
}

wanderer_lifestyle_events.25 = { # Follow-up
	type = character_event
	content_source = dlc_015
	title = wanderer_lifestyle_events.25.t
	desc = wanderer_lifestyle_events.25.desc
	theme = wanderer_journey_focus

	override_background = { reference = market }

	cooldown = { years = 10 }

	left_portrait = {
		character = root
		animation = survey
	}

	immediate = {
		remove_variable = reminiscing_location
		location = { save_scope_as = province_location }
	}

	option = {
		name = wanderer_lifestyle_events.25.a
		if = {
			limit = {
				has_lifestyle = wanderer_lifestyle
			}
			add_wanderer_lifestyle_xp = 250
		}
		stress_impact = {
			base = medium_stress_impact_loss
		}
	}
}

# scripted_trigger dreams_of_distant_lands_region_trigger = { # Anbennar
# 	NOT = { 
# 		root.capital_county.title_province = {
# 			geographical_region = geographical_region:world_$REGION$ 
# 		}
# 	}
# }

# scripted_effect dreams_of_distant_lands_animal_effect = { # Anbennar
# 	set_variable = {
# 		name = dreams_of_distant_lands_$REGION$
# 		value = { integer_range = { min = 1 max = $MAX$ } }
# 	}
# }

# scripted_trigger dreams_of_distant_lands_singular_animal_trigger = { # Anbennar
# 	OR = {
# 		AND = {
# 			has_variable = dreams_of_distant_lands_europe
# 			var:dreams_of_distant_lands_europe = 2
# 		}
# 		AND = {
# 			has_variable = dreams_of_distant_lands_africa
# 			var:dreams_of_distant_lands_africa = 3
# 		}
# 		AND = {
# 			has_variable = dreams_of_distant_lands_middle_east
# 			OR = {
# 				var:dreams_of_distant_lands_middle_east = 2
# 				var:dreams_of_distant_lands_middle_east = 3
# 			}
# 		}
# 		AND = {
# 			has_variable = dreams_of_distant_lands_india
# 			var:dreams_of_distant_lands_india = 1
# 		}
# 		AND = {
# 			has_variable = dreams_of_distant_lands_tibet
# 			var:dreams_of_distant_lands_tibet = 1
# 		}
# 		AND = {
# 			has_variable = dreams_of_distant_lands_steppe
# 			var:dreams_of_distant_lands_steppe = 1
# 		}
# 	}
# }

# wanderer_lifestyle_events.30 = { # Dreams of Distant Lands # Anbennar TODO: add ours
	# type = character_event
	# content_source = dlc_015
	# title = wanderer_lifestyle_events.30.t
	# desc = {
		# desc = wanderer_lifestyle_events.30.desc
		# first_valid = {
			# triggered_desc = {
				# trigger = {
					# dreams_of_distant_lands_singular_animal_trigger = yes
				# }
				# desc = wanderer_lifestyle_events.30.desc.singular
			# }
			# desc = wanderer_lifestyle_events.30.desc.plural
		# }
	# }
	# theme = wanderer_journey_focus

	# override_background = { reference = study }

	# cooldown = { years = 10 }

	# left_portrait = {
		# character = root
		# animation = reading
	# }

	# trigger = {
		# is_ai = no
		# has_lifestyle = wanderer_lifestyle
		# NOR = {
			# has_variable = dreams_of_distant_lands_europe
			# has_variable = dreams_of_distant_lands_africa
			# has_variable = dreams_of_distant_lands_middle_east
			# has_variable = dreams_of_distant_lands_india
			# has_variable = dreams_of_distant_lands_tibet
			# has_variable = dreams_of_distant_lands_steppe
		# }
	# }

	# immediate = {
		# random_list = {
			# 10 = { # Europe
				# trigger = { dreams_of_distant_lands_region_trigger = { REGION = europe } }
				# dreams_of_distant_lands_animal_effect = { REGION = europe MAX = 2 }
			# }
			# 10 = { # Africa
				# trigger = { dreams_of_distant_lands_region_trigger = { REGION = africa } }
				# dreams_of_distant_lands_animal_effect = { REGION = africa MAX = 3 }
			# }
			# 10 = { # Asia
				# trigger = { dreams_of_distant_lands_region_trigger = { REGION = middle_east } }
				# dreams_of_distant_lands_animal_effect = { REGION = middle_east MAX = 3 }
			# }
			# 10 = { # India
				# trigger = { dreams_of_distant_lands_region_trigger = { REGION = india } }
				# dreams_of_distant_lands_animal_effect = { REGION = india MAX = 3 }
			# }
			# 10 = { # Tibet
				# trigger = { dreams_of_distant_lands_region_trigger = { REGION = tibet } }
				# dreams_of_distant_lands_animal_effect = { REGION = tibet MAX = 3 }
			# }
			# 10 = { # Steppes
				# trigger = { dreams_of_distant_lands_region_trigger = { REGION = steppe } }
				# dreams_of_distant_lands_animal_effect = { REGION = steppe MAX = 3 }
			# }
		# }

		# create_character = {
			# template = merchant_template
			# faith = root.faith
			# culture = root.culture
			# gender = root
			# location = root.location
			# save_scope_as = traveler_character
		# }
	# }

	# option = {
		# name = {
			# trigger = {
				# dreams_of_distant_lands_singular_animal_trigger = yes
			# }
			# text = wanderer_lifestyle_events.30.a.singular
		# }
		# name = {
			# trigger = {
				# dreams_of_distant_lands_singular_animal_trigger = no
			# }
			# text = wanderer_lifestyle_events.30.a.plural
		# }
		# switch = {
			# trigger = has_variable
			# dreams_of_distant_lands_europe = { custom_tooltip = wanderer_lifestyle_events.30.a.europe }
			# dreams_of_distant_lands_africa = { custom_tooltip = wanderer_lifestyle_events.30.a.africa }
			# dreams_of_distant_lands_middle_east = { custom_tooltip = wanderer_lifestyle_events.30.a.asia }
			# dreams_of_distant_lands_india = { custom_tooltip = wanderer_lifestyle_events.30.a.india }
			# dreams_of_distant_lands_tibet = { custom_tooltip = wanderer_lifestyle_events.30.a.tibet }
			# dreams_of_distant_lands_steppe = { custom_tooltip = wanderer_lifestyle_events.30.a.steppe }
		# }
	# }

	# after = {
		# scope:traveler_character = {
			# silent_dissapear_ai_if_not_hired = yes
		# }
	# }
# }

scripted_trigger dreams_of_distant_lands_followup_trigger = {
	AND = {
		has_variable = dreams_of_distant_lands_$REGION$
		location = {
			geographical_region = geographical_region:world_$REGION$
		}
	}
}

scripted_effect dreams_of_distant_lands_followup_reward_effect = {
	if = {
		limit = {
			has_lifestyle = wanderer_lifestyle
		}
		add_wanderer_lifestyle_perk_points = 1
	}
	stress_impact = {
		base = major_stress_impact_loss
	}
}

# wanderer_lifestyle_events.35 = { # Dreams of Distant Lands - Followup # Anbennar TODO: add ours
	# type = character_event
	# content_source = dlc_015
	# title = wanderer_lifestyle_events.35.t
	# desc = {
		# first_valid = {
			# triggered_desc = {
				# trigger = {
					# dreams_of_distant_lands_singular_animal_trigger = yes
				# }
				# desc = wanderer_lifestyle_events.35.desc.singular
			# }
			# desc = wanderer_lifestyle_events.35.desc.plural
		# }
		# random_valid = {
			# triggered_desc = {
				# trigger = {
					# dreams_of_distant_lands_singular_animal_trigger = yes
				# }
				# desc = wanderer_lifestyle_events.35.desc.singular.adorable
			# }
			# triggered_desc = {
				# trigger = {
					# dreams_of_distant_lands_singular_animal_trigger = yes
				# }
				# desc = wanderer_lifestyle_events.35.desc.singular.neutral
			# }
			# triggered_desc = {
				# trigger = {
					# dreams_of_distant_lands_singular_animal_trigger = yes
				# }
				# desc = wanderer_lifestyle_events.35.desc.singular.taken_aback
			# }
			# desc = wanderer_lifestyle_events.35.desc.plural.adorable
			# desc = wanderer_lifestyle_events.35.desc.plural.neutral
			# desc = wanderer_lifestyle_events.35.desc.plural.taken_aback
		# }
	# }
	# theme = wanderer_journey_focus

	# override_background = { reference = wilderness }

	# left_portrait = {
		# character = root
		# animation = survey
	# }

	# trigger = {
		# has_bp3_dlc_trigger = yes
		# NOT = { has_variable = wanderer_lifestyle_events_35_done }
		# OR = {
			# dreams_of_distant_lands_followup_trigger = { REGION = europe }
			# dreams_of_distant_lands_followup_trigger = { REGION = africa }
			# dreams_of_distant_lands_followup_trigger = { REGION = middle_east }
			# dreams_of_distant_lands_followup_trigger = { REGION = india }
			# dreams_of_distant_lands_followup_trigger = { REGION = tibet }
			# dreams_of_distant_lands_followup_trigger = { REGION = steppe }
		# }
	# }

	# immediate = {
		# location = { save_scope_as = province_location }
		# mp_delay_travel_plan = { DAYS = 90 }
		# set_variable = wanderer_lifestyle_events_35_done
		# create_character_memory = {
			# type = found_exotic_animal
		# }
	# }

	# option = {
		# name = wanderer_lifestyle_events.35.a
		# dreams_of_distant_lands_followup_reward_effect = yes
		# duel = {
			# skills = { prowess }
			# value = 25
			# 40 = {
				# compare_modifier = {
					# value = scope:duel_value
					# multiplier = 3.5
					# min = -49
				# }
				# desc = wanderer_lifestyle_events.35.a.win
				# add_character_modifier = {
					# modifier = wanderer_exotic_animal_modifier
					# years = 15
				# }
			# }
			# 60 = {
				# compare_modifier = {
					# value = scope:duel_value
					# multiplier = -3.5
					# min = -49
				# }
				# desc = wanderer_lifestyle_events.35.a.lose
				# add_prestige = -100
				# increase_wounds_no_death_effect = { REASON = wild_animal }
			# }
		# }

		# ai_chance = {
			# base = 100
			# modifier = {
				# factor = 5
				# OR = {
					# has_trait = brave
					# has_trait = ambitious
					# has_trait = greedy
				# }
			# }
		# }
	# }

	# option = {
		# name = {
			# trigger = {
				# dreams_of_distant_lands_singular_animal_trigger = yes
			# }
			# text = wanderer_lifestyle_events.35.b.singular
		# }
		# name = {
			# trigger = {
				# dreams_of_distant_lands_singular_animal_trigger = no
			# }
			# text = wanderer_lifestyle_events.35.b.plural
		# }
		# dreams_of_distant_lands_followup_reward_effect = yes

		# ai_chance = {
			# base = 100
			# modifier = {
				# factor = 5
				# NOR = {
					# has_trait = brave
					# has_trait = ambitious
					# has_trait = greedy
				# }
			# }
		# }
	# }

	# after = {
		# mp_resume_travel_plan = yes
	# }
# }
