k_seghdihr = {
	1000.1.1 = { change_development_level = 3 }
	921.9.24 = {
		holder = 126 #Ungrim az-Segh
	}
}

d_seghdihr = {
	921.9.24 = {
		holder = 126 #Ungrim az-Segh
	}
}

c_seghdihr = {
	1000.1.1 = { change_development_level = 13 }
	921.9.24 = {
		holder = 126 #Ungrim az-Segh
	}
}